{
    "id": "POOLNAME",
	"virtualMachineConfiguration": {
        "imageReference": {
            "virtualMachineImageId": 	"/subscriptions/SUBSCRIPTION/resourceGroups/RESOURCEGROUP/providers/Microsoft.Compute/galleries/GALLERYNAME/images/IMAGENAME/versions/IMAGEVERSION"
        },
        "nodeAgentSKUId": "batch.node.windows amd64"
    },
	"vmSize": "Standard_DS3_v2",
    "resizeTimeout": "PT15M",
    "targetDedicatedNodes": NODECOUNT,
    "targetLowPriorityNodes": 0,
    "enableInterNodeCommunication": false,
    "networkConfiguration": {
        "subnetId": "/subscriptions/SUBSCRIPTION/resourceGroups/RESOURCENETWORK/providers/Microsoft.Network/virtualNetworks/RESOURCENETWORK/subnets/default",
        "dynamicVNetAssignmentScope": "none"
    },
    "maxTasksPerNode": 1,
    "taskSchedulingPolicy": {
        "nodeFillType": "Pack"
    },
    "userAccounts": [
      {
        "name": "gwadmin",
        "password": "Skitag2!Skitag2!",
        "elevationLevel": "Admin",
        "windowsUserConfiguration": {
                "loginMode": "interactive"
        }
      }
     ],
    "startTask": {
      "commandLine": "COMMANDLINE",
      "userIdentity": {
        "autoUser": {
          "scope": "Task",
          "elevationLevel": "Admin"
        }
      }
    }	  
}
